{
    "@context": "https://doi.org/10.5063/schema/codemeta-2.0",
    "@type": "SoftwareSourceCode",
    "codeRepository": "https://gitlab.com/compay2k/python",
    "dateCreated": "2022-02-10",
    "name": "ben test python",
    "description": "This is just a sample test app presented today",
    "programmingLanguage": [
        "Python 3"
    ],
    "author": [
        {
            "@type": "Person",
            "givenName": "benoit",
            "familyName": "chauvet",
            "email": "contact@benoitchauvet.com"
        }
    ]
}
